[gd_scene load_steps=5 format=2]

[ext_resource path="res://minigames/arithmetic/arithmetic.gd" type="Script" id=1]
[ext_resource path="res://fonts/arithmetic.tres" type="DynamicFont" id=2]
[ext_resource path="res://fonts/arithmetic_description.tres" type="DynamicFont" id=3]
[ext_resource path="res://minigames/arithmetic/Sprites/blackboard.png" type="Texture" id=4]

[node name="Node2D" type="Node2D"]
script = ExtResource( 1 )
minigame_name = "arithmetic"
timer_duration = 3
intro_duration = 0

[node name="blackboard" type="Sprite" parent="."]
scale = Vector2( 0.524364, 0.482613 )
texture = ExtResource( 4 )
centered = false

[node name="VBoxContainer" type="VBoxContainer" parent="."]
margin_right = 1280.0
margin_bottom = 716.0
alignment = 1
__meta__ = {
"_edit_use_anchors_": false
}

[node name="DescriptionLabel" type="Label" parent="VBoxContainer"]
margin_top = 233.0
margin_right = 1280.0
margin_bottom = 315.0
custom_fonts/font = ExtResource( 3 )
text = "Press = correct!"
align = 1
valign = 1
__meta__ = {
"_edit_use_anchors_": false
}

[node name="ArithmeticLabel" type="Label" parent="VBoxContainer"]
margin_top = 319.0
margin_right = 1280.0
margin_bottom = 482.0
custom_fonts/font = ExtResource( 2 )
text = "4 + 4 = 5"
align = 1
valign = 1
__meta__ = {
"_edit_use_anchors_": false
}
