# Blender v2.79 (sub 0) OBJ File: 'flames.blend'
# www.blender.org
mtllib flame2.mtl
o Flame1_Plane.001
v -0.278370 -0.005626 -0.000000
v -0.712159 0.298431 -0.000000
v -0.578373 0.148430 -0.000000
v -0.428372 0.051131 -0.000000
v -0.809457 0.448433 -0.000000
v -0.890539 0.699787 0.000000
v -0.902702 0.955196 0.000000
v -0.849998 1.161955 0.000000
v -0.772970 1.356552 0.000000
v -0.651347 1.567365 0.000000
v -0.493237 1.774124 0.000000
v -0.355398 1.940343 0.000000
v -0.286478 2.025479 0.000000
v -0.254045 2.118723 0.000000
v -0.237829 2.070074 0.000000
v -0.262153 1.980884 0.000000
v -0.274316 1.883585 0.000000
v -0.233775 1.834936 0.000000
v -0.140530 1.855206 0.000000
v -0.075665 1.932234 0.000000
v -0.018907 2.074128 0.000000
v -0.022961 2.256562 0.000000
v -0.051340 2.455213 0.000000
v -0.083773 2.568728 0.000000
v -0.002691 2.483592 0.000000
v 0.086499 2.337644 0.000000
v 0.143257 2.187643 0.000000
v 0.163527 1.997100 0.000000
v 0.122986 1.826828 0.000000
v 0.050012 1.579527 0.000000
v 0.041904 1.344389 0.000000
v 0.054067 1.186279 0.000000
v 0.122986 1.080873 0.000000
v 0.195960 1.056548 0.000000
v 0.281096 1.121414 0.000000
v 0.272988 1.271415 0.000000
v 0.224339 1.405201 0.000000
v 0.208122 1.555203 0.000000
v 0.216231 1.697096 0.000000
v 0.244609 1.826828 0.000000
v 0.289204 1.668718 0.000000
v 0.366232 1.555203 0.000000
v 0.471639 1.433580 0.000000
v 0.581100 1.299794 0.000000
v 0.682452 1.145738 0.000000
v 0.751372 0.991683 0.000000
v 0.787859 0.813302 0.000000
v 0.783805 0.638976 -0.000000
v 0.722993 0.448433 -0.000000
v 0.613533 0.253836 -0.000000
v 0.487855 0.144375 -0.000000
v 0.313529 0.034915 -0.000000
v 0.200014 -0.017789 -0.000000
v -0.383776 0.083564 -0.000000
v -0.485129 0.193025 -0.000000
v -0.541886 0.371405 -0.000000
v -0.537832 0.501136 -0.000000
v -0.489183 0.634922 -0.000000
v -0.416209 0.740328 0.000000
v -0.367560 0.829519 0.000000
v -0.331073 0.947088 0.000000
v -0.298640 0.866006 0.000000
v -0.298640 0.776815 0.000000
v -0.322965 0.651138 -0.000000
v -0.351344 0.549786 -0.000000
v -0.298640 0.464650 -0.000000
v -0.209450 0.456541 -0.000000
v -0.160801 0.517353 -0.000000
v -0.152693 0.626814 -0.000000
v -0.168909 0.748437 0.000000
v -0.185125 0.890330 0.000000
v -0.194510 1.002943 0.000000
v -0.180433 1.113209 0.000000
v -0.152280 1.197669 0.000000
v -0.121781 1.265705 0.000000
v -0.063128 1.345473 0.000000
v -0.095974 1.239898 0.000000
v -0.107704 1.136670 0.000000
v -0.091282 0.991212 0.000000
v -0.042014 0.866869 0.000000
v 0.047138 0.761295 0.000000
v 0.129251 0.721411 0.000000
v 0.209019 0.723757 0.000000
v 0.265325 0.756603 0.000000
v 0.305209 0.810563 0.000000
v 0.312247 0.871561 0.000000
v 0.305209 0.941944 0.000000
v 0.359169 0.859831 0.000000
v 0.413129 0.765987 0.000000
v 0.443628 0.658067 -0.000000
v 0.445974 0.552492 -0.000000
v 0.441282 0.451610 -0.000000
v 0.420167 0.374189 -0.000000
v 0.380284 0.268615 -0.000000
v 0.338054 0.193540 -0.000000
v 0.302862 0.139580 -0.000000
v -0.057131 0.115506 -0.000000
v -0.010231 0.085997 -0.000000
v 0.041100 0.099015 -0.000000
v 0.074882 0.149688 -0.000000
v 0.108664 0.222882 -0.000000
v 0.131185 0.329859 -0.000000
v 0.111479 0.459356 -0.000000
v 0.072067 0.569148 -0.000000
v 0.074882 0.498769 -0.000000
v 0.077697 0.434020 -0.000000
v 0.066436 0.386162 -0.000000
v 0.029839 0.312968 -0.000000
v -0.026464 0.234143 -0.000000
v -0.063361 0.173067 -0.000000
v -0.712804 0.480903 -0.000000
v -0.739829 0.589004 -0.000000
v -0.749964 0.703861 0.000000
v -0.743207 0.811962 0.000000
v -0.726317 0.899794 0.000000
v -0.679022 1.021407 0.000000
v -0.631728 1.112617 0.000000
v -0.557409 1.217340 0.000000
v -0.476333 1.298415 0.000000
v -0.385123 1.372734 0.000000
v -0.337829 1.379491 0.000000
v -0.287157 1.338953 0.000000
v -0.243241 1.345709 0.000000
v -0.206082 1.365978 0.000000
v -0.141897 1.443676 0.000000
v -0.074334 1.541642 0.000000
v -0.006771 1.670011 0.000000
v 0.037145 1.805137 0.000000
v 0.057414 1.987557 0.000000
v 0.054036 2.129440 0.000000
v 0.030389 2.213893 0.000000
v 0.030389 2.082145 0.000000
v 0.003364 1.936885 0.000000
v -0.050687 1.828784 0.000000
v -0.148653 1.754465 0.000000
v -0.239863 1.727440 0.000000
v -0.300670 1.747709 0.000000
v -0.331073 1.784868 0.000000
v -0.368233 1.778112 0.000000
v -0.462821 1.697037 0.000000
v -0.564165 1.585558 0.000000
v -0.645241 1.453810 0.000000
v -0.722938 1.311928 0.000000
v -0.780367 1.119373 0.000000
v -0.800636 0.980869 0.000000
v -0.800636 0.835609 0.000000
v -0.783745 0.670079 -0.000000
v -0.756720 0.558600 -0.000000
v 0.539039 0.278860 -0.000000
v 0.586866 0.335128 -0.000000
v 0.629068 0.413903 -0.000000
v 0.685336 0.577081 -0.000000
v 0.699403 0.774019 0.000000
v 0.665642 0.985025 0.000000
v 0.584053 1.148202 0.000000
v 0.474330 1.319820 0.000000
v 0.381488 1.443610 0.000000
v 0.305526 1.561773 0.000000
v 0.325220 1.460490 0.000000
v 0.361794 1.370461 0.000000
v 0.403995 1.300126 0.000000
v 0.437756 1.187590 0.000000
v 0.457450 1.058173 0.000000
v 0.479957 0.948450 0.000000
v 0.505278 0.889369 0.000000
v 0.539039 0.782459 0.000000
v 0.553106 0.709311 0.000000
v 0.555919 0.585521 -0.000000
v 0.533412 0.464545 -0.000000
v 0.505278 0.382956 -0.000000
v 0.451823 0.261979 -0.000000
v 0.393552 0.180391 -0.000000
v -0.278370 -0.005626 -0.028006
v -0.712159 0.298431 -0.028006
v -0.578373 0.148430 -0.028006
v -0.428372 0.051131 -0.028006
v -0.809457 0.448433 -0.028006
v -0.890539 0.699787 -0.028006
v -0.902702 0.955196 -0.028006
v -0.849998 1.161955 -0.028006
v -0.772970 1.356552 -0.028006
v -0.651347 1.567365 -0.028005
v -0.493237 1.774124 -0.028005
v -0.355398 1.940343 -0.028005
v -0.286478 2.025479 -0.028005
v -0.254045 2.118723 -0.028005
v -0.237829 2.070074 -0.028005
v -0.262153 1.980884 -0.028005
v -0.274316 1.883585 -0.028005
v -0.233775 1.834936 -0.028005
v -0.140530 1.855206 -0.028005
v -0.075665 1.932234 -0.028005
v -0.018907 2.074128 -0.028005
v -0.022961 2.256562 -0.028005
v -0.051340 2.455213 -0.028005
v -0.083773 2.568728 -0.028005
v -0.002691 2.483592 -0.028005
v 0.086499 2.337644 -0.028005
v 0.143257 2.187643 -0.028005
v 0.163527 1.997100 -0.028005
v 0.122986 1.826828 -0.028005
v 0.050012 1.579527 -0.028005
v 0.041904 1.344389 -0.028006
v 0.054067 1.186279 -0.028006
v 0.122986 1.080873 -0.028006
v 0.195960 1.056548 -0.028006
v 0.281096 1.121414 -0.028006
v 0.272988 1.271415 -0.028006
v 0.224339 1.405201 -0.028006
v 0.208122 1.555203 -0.028005
v 0.216231 1.697096 -0.028005
v 0.244609 1.826828 -0.028005
v 0.289204 1.668718 -0.028005
v 0.366232 1.555203 -0.028005
v 0.471639 1.433580 -0.028005
v 0.581100 1.299794 -0.028006
v 0.682452 1.145738 -0.028006
v 0.751372 0.991683 -0.028006
v 0.787859 0.813302 -0.028006
v 0.783805 0.638976 -0.028006
v 0.722993 0.448433 -0.028006
v 0.613533 0.253836 -0.028006
v 0.487855 0.144375 -0.028006
v 0.313529 0.034915 -0.028006
v 0.200014 -0.017789 -0.028006
v -0.383776 0.083564 -0.028006
v -0.485129 0.193025 -0.028006
v -0.541886 0.371405 -0.028006
v -0.537832 0.501136 -0.028006
v -0.489183 0.634922 -0.028006
v -0.416209 0.740328 -0.028006
v -0.367560 0.829519 -0.028006
v -0.331073 0.947088 -0.028006
v -0.298640 0.866006 -0.028006
v -0.298640 0.776815 -0.028006
v -0.322965 0.651138 -0.028006
v -0.351344 0.549786 -0.028006
v -0.298640 0.464650 -0.028006
v -0.209450 0.456541 -0.028006
v -0.160801 0.517353 -0.028006
v -0.152693 0.626814 -0.028006
v -0.168909 0.748437 -0.028006
v -0.185125 0.890330 -0.028006
v -0.194510 1.002943 -0.028006
v -0.180433 1.113209 -0.028006
v -0.152280 1.197669 -0.028006
v -0.121781 1.265705 -0.028006
v -0.063128 1.345473 -0.028006
v -0.095974 1.239898 -0.028006
v -0.107704 1.136670 -0.028006
v -0.091282 0.991212 -0.028006
v -0.042014 0.866869 -0.028006
v 0.047138 0.761295 -0.028006
v 0.129251 0.721411 -0.028006
v 0.209019 0.723757 -0.028006
v 0.265325 0.756603 -0.028006
v 0.305209 0.810563 -0.028006
v 0.312247 0.871561 -0.028006
v 0.305209 0.941944 -0.028006
v 0.359169 0.859831 -0.028006
v 0.413129 0.765987 -0.028006
v 0.443628 0.658067 -0.028006
v 0.445974 0.552492 -0.028006
v 0.441282 0.451610 -0.028006
v 0.420167 0.374189 -0.028006
v 0.380284 0.268615 -0.028006
v 0.338054 0.193540 -0.028006
v 0.302862 0.139580 -0.028006
v -0.057131 0.115506 -0.028006
v -0.010231 0.085997 -0.028006
v 0.041100 0.099015 -0.028006
v 0.074882 0.149688 -0.028006
v 0.108664 0.222882 -0.028006
v 0.131185 0.329859 -0.028006
v 0.111479 0.459356 -0.028006
v 0.072067 0.569148 -0.028006
v 0.074882 0.498769 -0.028006
v 0.077697 0.434020 -0.028006
v 0.066436 0.386162 -0.028006
v 0.029839 0.312968 -0.028006
v -0.026464 0.234143 -0.028006
v -0.063361 0.173067 -0.028006
v -0.712804 0.480903 -0.028006
v -0.739829 0.589004 -0.028006
v -0.749964 0.703861 -0.028006
v -0.743207 0.811962 -0.028006
v -0.726317 0.899794 -0.028006
v -0.679022 1.021407 -0.028006
v -0.631728 1.112617 -0.028006
v -0.557409 1.217340 -0.028006
v -0.476333 1.298415 -0.028006
v -0.385123 1.372734 -0.028006
v -0.337829 1.379491 -0.028006
v -0.287157 1.338953 -0.028006
v -0.243241 1.345709 -0.028006
v -0.206082 1.365978 -0.028006
v -0.141897 1.443676 -0.028005
v -0.074334 1.541642 -0.028005
v -0.006771 1.670011 -0.028005
v 0.037145 1.805137 -0.028005
v 0.057414 1.987557 -0.028005
v 0.054036 2.129440 -0.028005
v 0.030389 2.213893 -0.028005
v 0.030389 2.082145 -0.028005
v 0.003364 1.936885 -0.028005
v -0.050687 1.828784 -0.028005
v -0.148653 1.754465 -0.028005
v -0.239863 1.727440 -0.028005
v -0.300670 1.747709 -0.028005
v -0.331073 1.784868 -0.028005
v -0.368233 1.778112 -0.028005
v -0.462821 1.697037 -0.028005
v -0.564165 1.585558 -0.028005
v -0.645241 1.453810 -0.028005
v -0.722938 1.311928 -0.028006
v -0.780367 1.119373 -0.028006
v -0.800636 0.980869 -0.028006
v -0.800636 0.835609 -0.028006
v -0.783745 0.670079 -0.028006
v -0.756720 0.558600 -0.028006
v 0.539039 0.278860 -0.028006
v 0.586866 0.335128 -0.028006
v 0.629068 0.413903 -0.028006
v 0.685336 0.577081 -0.028006
v 0.699403 0.774019 -0.028006
v 0.665642 0.985025 -0.028006
v 0.584053 1.148202 -0.028006
v 0.474330 1.319820 -0.028006
v 0.381488 1.443610 -0.028005
v 0.305526 1.561773 -0.028005
v 0.325220 1.460490 -0.028005
v 0.361794 1.370461 -0.028006
v 0.403995 1.300126 -0.028006
v 0.437756 1.187590 -0.028006
v 0.457450 1.058173 -0.028006
v 0.479957 0.948450 -0.028006
v 0.505278 0.889369 -0.028006
v 0.539039 0.782459 -0.028006
v 0.553106 0.709311 -0.028006
v 0.555919 0.585521 -0.028006
v 0.533412 0.464545 -0.028006
v 0.505278 0.382956 -0.028006
v 0.451823 0.261979 -0.028006
v 0.393552 0.180391 -0.028006
vn 0.0000 -0.0000 1.0000
vn 0.0000 0.0000 -1.0000
vn -0.5442 -0.8390 0.0000
vn -0.9984 0.0570 0.0000
vn 0.9923 -0.1240 0.0000
vn 0.9971 0.0767 0.0000
vn -0.8662 0.4997 0.0000
vn 0.9797 0.2004 0.0000
vn 0.7241 0.6897 0.0000
vn -0.8390 -0.5442 0.0000
vn -0.9769 0.2137 0.0000
vn 0.7682 0.6402 0.0000
vn 0.8370 0.5472 0.0000
vn -0.7944 0.6075 0.0000
vn 0.9997 -0.0232 0.0000
vn 0.8533 0.5214 0.0000
vn -0.7463 -0.6656 0.0000
vn 0.9624 0.2715 0.0000
vn -0.2124 0.9772 0.0000
vn 0.3162 0.9487 0.0000
vn -0.7698 0.6383 0.0000
vn 0.9527 -0.3040 0.0000
vn 0.9353 0.3539 0.0000
vn -0.3539 -0.9353 0.0000
vn 0.8275 0.5615 0.0000
vn -0.7649 0.6441 0.0000
vn -0.6060 0.7954 0.0000
vn -0.7772 0.6292 0.0000
vn 0.8716 -0.4903 0.0000
vn 0.9944 0.1058 0.0000
vn -0.9517 -0.3070 0.0000
vn 0.7557 0.6549 0.0000
vn -0.9285 0.3714 0.0000
vn -0.9985 -0.0540 0.0000
vn -0.9445 0.3285 0.0000
vn 0.6568 -0.7541 0.0000
vn 0.9728 -0.2316 0.0000
vn -0.9989 -0.0476 0.0000
vn 0.7740 0.6332 0.0000
vn -0.9998 -0.0222 0.0000
vn -0.9398 -0.3417 0.0000
vn 0.9487 0.3162 0.0000
vn 0.5318 -0.8469 0.0000
vn 0.9591 -0.2830 0.0000
vn 0.8354 0.5496 0.0000
vn -0.9690 0.2470 0.0000
vn -0.9899 -0.1414 0.0000
vn -0.9942 -0.1075 0.0000
vn 0.9648 -0.2631 0.0000
vn 0.4211 -0.9070 0.0000
vn 0.9994 -0.0345 0.0000
vn -0.9298 0.3680 0.0000
vn 0.9128 0.4084 0.0000
vn -0.9615 -0.2747 0.0000
vn -0.0254 -0.9997 0.0000
usemtl FlameYellow
s off
f 3//1 4//1 1//1 54//1 55//1
f 52//1 51//1 172//1 95//1 96//1 53//1
f 50//1 149//1 172//1 51//1
f 49//1 151//1 150//1 149//1 50//1
f 48//1 152//1 151//1 49//1
f 47//1 153//1 152//1 48//1
f 46//1 154//1 153//1 47//1
f 45//1 155//1 154//1 46//1
f 44//1 156//1 155//1 45//1
f 43//1 157//1 156//1 44//1
f 42//1 158//1 157//1 43//1
f 39//1 38//1 158//1 42//1 41//1 40//1
f 37//1 159//1 158//1 38//1
f 36//1 160//1 159//1 37//1
f 95//1 172//1 171//1 170//1 93//1 94//1
f 93//1 170//1 169//1 92//1
f 92//1 169//1 168//1 91//1
f 91//1 168//1 167//1 90//1
f 90//1 167//1 166//1 89//1
f 89//1 166//1 165//1 88//1
f 88//1 165//1 164//1 87//1
f 34//1 87//1 164//1 163//1 35//1
f 162//1 161//1 160//1 36//1 35//1 163//1
f 34//1 33//1 81//1 82//1
f 86//1 87//1 34//1 82//1 83//1 84//1 85//1
f 33//1 32//1 80//1 81//1
f 79//1 80//1 32//1 78//1
f 32//1 31//1 76//1 77//1 78//1
f 30//1 126//1 125//1 76//1 31//1
f 29//1 128//1 127//1 126//1 30//1
f 28//1 129//1 128//1 29//1
f 27//1 130//1 129//1 28//1
f 26//1 131//1 130//1 27//1
f 23//1 22//1 131//1 26//1 25//1 24//1
f 21//1 132//1 131//1 22//1
f 20//1 133//1 132//1 21//1
f 19//1 134//1 133//1 20//1
f 18//1 136//1 135//1 134//1 19//1
f 17//1 138//1 137//1 136//1 18//1
f 13//1 12//1 16//1 15//1 14//1
f 16//1 12//1 139//1 138//1 17//1
f 11//1 140//1 139//1 12//1
f 10//1 141//1 140//1 11//1
f 9//1 142//1 141//1 10//1
f 8//1 144//1 143//1 142//1 9//1
f 7//1 145//1 144//1 8//1
f 6//1 146//1 145//1 7//1
f 5//1 148//1 147//1 146//1 6//1
f 5//1 2//1 111//1 148//1
f 57//1 111//1 2//1 56//1
f 2//1 3//1 55//1 56//1
f 58//1 113//1 112//1 111//1 57//1
f 59//1 114//1 113//1 58//1
f 65//1 66//1 67//1 68//1
f 64//1 65//1 68//1 69//1
f 63//1 64//1 69//1 70//1
f 62//1 63//1 70//1 71//1
f 61//1 62//1 71//1 72//1
f 60//1 115//1 114//1 59//1
f 61//1 116//1 115//1 60//1
f 117//1 116//1 61//1 72//1
f 73//1 118//1 117//1 72//1
f 74//1 119//1 118//1 73//1
f 122//1 121//1 120//1 119//1 74//1 75//1
f 125//1 124//1 123//1 122//1 75//1 76//1
f 175//2 227//2 226//2 173//2 176//2
f 224//2 225//2 268//2 267//2 344//2 223//2
f 222//2 223//2 344//2 321//2
f 221//2 222//2 321//2 322//2 323//2
f 220//2 221//2 323//2 324//2
f 219//2 220//2 324//2 325//2
f 218//2 219//2 325//2 326//2
f 217//2 218//2 326//2 327//2
f 216//2 217//2 327//2 328//2
f 215//2 216//2 328//2 329//2
f 214//2 215//2 329//2 330//2
f 211//2 212//2 213//2 214//2 330//2 210//2
f 209//2 210//2 330//2 331//2
f 208//2 209//2 331//2 332//2
f 267//2 266//2 265//2 342//2 343//2 344//2
f 265//2 264//2 341//2 342//2
f 264//2 263//2 340//2 341//2
f 263//2 262//2 339//2 340//2
f 262//2 261//2 338//2 339//2
f 261//2 260//2 337//2 338//2
f 260//2 259//2 336//2 337//2
f 206//2 207//2 335//2 336//2 259//2
f 334//2 335//2 207//2 208//2 332//2 333//2
f 206//2 254//2 253//2 205//2
f 258//2 257//2 256//2 255//2 254//2 206//2 259//2
f 205//2 253//2 252//2 204//2
f 251//2 250//2 204//2 252//2
f 204//2 250//2 249//2 248//2 203//2
f 202//2 203//2 248//2 297//2 298//2
f 201//2 202//2 298//2 299//2 300//2
f 200//2 201//2 300//2 301//2
f 199//2 200//2 301//2 302//2
f 198//2 199//2 302//2 303//2
f 195//2 196//2 197//2 198//2 303//2 194//2
f 193//2 194//2 303//2 304//2
f 192//2 193//2 304//2 305//2
f 191//2 192//2 305//2 306//2
f 190//2 191//2 306//2 307//2 308//2
f 189//2 190//2 308//2 309//2 310//2
f 185//2 186//2 187//2 188//2 184//2
f 188//2 189//2 310//2 311//2 184//2
f 183//2 184//2 311//2 312//2
f 182//2 183//2 312//2 313//2
f 181//2 182//2 313//2 314//2
f 180//2 181//2 314//2 315//2 316//2
f 179//2 180//2 316//2 317//2
f 178//2 179//2 317//2 318//2
f 177//2 178//2 318//2 319//2 320//2
f 177//2 320//2 283//2 174//2
f 229//2 228//2 174//2 283//2
f 174//2 228//2 227//2 175//2
f 230//2 229//2 283//2 284//2 285//2
f 231//2 230//2 285//2 286//2
f 237//2 240//2 239//2 238//2
f 236//2 241//2 240//2 237//2
f 235//2 242//2 241//2 236//2
f 234//2 243//2 242//2 235//2
f 233//2 244//2 243//2 234//2
f 232//2 231//2 286//2 287//2
f 233//2 232//2 287//2 288//2
f 289//2 244//2 233//2 288//2
f 245//2 244//2 289//2 290//2
f 246//2 245//2 290//2 291//2
f 294//2 247//2 246//2 291//2 292//2 293//2
f 297//2 248//2 247//2 294//2 295//2 296//2
f 3//3 175//3 176//3 4//3
f 39//4 211//4 210//4 38//4
f 17//5 189//5 188//5 16//5
f 32//6 204//6 203//6 31//6
f 10//7 182//7 181//7 9//7
f 47//8 219//8 218//8 46//8
f 25//9 197//9 196//9 24//9
f 5//10 177//10 174//10 2//10
f 40//11 212//11 211//11 39//11
f 18//12 190//12 189//12 17//12
f 33//13 205//13 204//13 32//13
f 11//14 183//14 182//14 10//14
f 48//15 220//15 219//15 47//15
f 26//16 198//16 197//16 25//16
f 2//17 174//17 175//17 3//17
f 41//18 213//18 212//18 40//18
f 19//19 191//19 190//19 18//19
f 34//20 206//20 205//20 33//20
f 12//21 184//21 183//21 11//21
f 49//22 221//22 220//22 48//22
f 27//23 199//23 198//23 26//23
f 4//24 176//24 173//24 1//24
f 42//25 214//25 213//25 41//25
f 20//26 192//26 191//26 19//26
f 35//27 207//27 206//27 34//27
f 13//28 185//28 184//28 12//28
f 50//29 222//29 221//29 49//29
f 28//30 200//30 199//30 27//30
f 6//31 178//31 177//31 5//31
f 43//32 215//32 214//32 42//32
f 21//33 193//33 192//33 20//33
f 36//34 208//34 207//34 35//34
f 14//35 186//35 185//35 13//35
f 51//36 223//36 222//36 50//36
f 29//37 201//37 200//37 28//37
f 7//38 179//38 178//38 6//38
f 44//39 216//39 215//39 43//39
f 22//40 194//40 193//40 21//40
f 37//41 209//41 208//41 36//41
f 15//42 187//42 186//42 14//42
f 52//43 224//43 223//43 51//43
f 30//44 202//44 201//44 29//44
f 45//45 217//45 216//45 44//45
f 8//46 180//46 179//46 7//46
f 23//47 195//47 194//47 22//47
f 38//48 210//48 209//48 37//48
f 16//49 188//49 187//49 15//49
f 53//50 225//50 224//50 52//50
f 31//51 203//51 202//51 30//51
f 9//52 181//52 180//52 8//52
f 46//53 218//53 217//53 45//53
f 24//54 196//54 195//54 23//54
usemtl FlameOrange
f 97//1 98//1 99//1 100//1 109//1 110//1
f 100//1 101//1 108//1 109//1
f 101//1 102//1 107//1 108//1
f 102//1 103//1 106//1 107//1
f 104//1 105//1 106//1 103//1
f 156//1 157//1 158//1 159//1 160//1
f 155//1 156//1 160//1 161//1 162//1
f 154//1 155//1 162//1 163//1 164//1
f 153//1 154//1 164//1 165//1 166//1
f 152//1 153//1 166//1 167//1 168//1
f 151//1 152//1 168//1 169//1
f 150//1 151//1 169//1 170//1
f 149//1 150//1 170//1 171//1 172//1
f 111//1 112//1 113//1 147//1 148//1
f 113//1 114//1 146//1 147//1
f 114//1 115//1 145//1 146//1
f 115//1 116//1 144//1 145//1
f 116//1 117//1 143//1 144//1
f 117//1 118//1 142//1 143//1
f 118//1 119//1 120//1 141//1 142//1
f 120//1 121//1 140//1 141//1
f 121//1 122//1 137//1 138//1 139//1 140//1
f 122//1 123//1 124//1 136//1 137//1
f 124//1 125//1 126//1 135//1 136//1
f 126//1 127//1 128//1 134//1 135//1
f 128//1 129//1 133//1 134//1
f 129//1 130//1 131//1 132//1 133//1
f 269//2 282//2 281//2 272//2 271//2 270//2
f 272//2 281//2 280//2 273//2
f 273//2 280//2 279//2 274//2
f 274//2 279//2 278//2 275//2
f 276//2 275//2 278//2 277//2
f 328//2 332//2 331//2 330//2 329//2
f 327//2 334//2 333//2 332//2 328//2
f 326//2 336//2 335//2 334//2 327//2
f 325//2 338//2 337//2 336//2 326//2
f 324//2 340//2 339//2 338//2 325//2
f 323//2 341//2 340//2 324//2
f 322//2 342//2 341//2 323//2
f 321//2 344//2 343//2 342//2 322//2
f 283//2 320//2 319//2 285//2 284//2
f 285//2 319//2 318//2 286//2
f 286//2 318//2 317//2 287//2
f 287//2 317//2 316//2 288//2
f 288//2 316//2 315//2 289//2
f 289//2 315//2 314//2 290//2
f 290//2 314//2 313//2 292//2 291//2
f 292//2 313//2 312//2 293//2
f 293//2 312//2 311//2 310//2 309//2 294//2
f 294//2 309//2 308//2 296//2 295//2
f 296//2 308//2 307//2 298//2 297//2
f 298//2 307//2 306//2 300//2 299//2
f 300//2 306//2 305//2 301//2
f 301//2 305//2 304//2 303//2 302//2
usemtl FlameRed
f 53//1 99//1 98//1 1//1
f 1//1 98//1 97//1 54//1
f 54//1 97//1 110//1 55//1
f 67//1 66//1 55//1 110//1
f 55//1 66//1 65//1 57//1 56//1
f 57//1 65//1 64//1 58//1
f 58//1 64//1 63//1 59//1
f 60//1 59//1 63//1 62//1 61//1
f 75//1 74//1 78//1 77//1 76//1
f 72//1 79//1 78//1 74//1 73//1
f 71//1 80//1 79//1 72//1
f 70//1 81//1 80//1 71//1
f 69//1 104//1 82//1 81//1 70//1
f 68//1 106//1 105//1 104//1 69//1
f 67//1 110//1 109//1 108//1 107//1 106//1 68//1
f 82//1 104//1 103//1 83//1
f 91//1 90//1 83//1 103//1 92//1
f 83//1 90//1 89//1 85//1 84//1
f 86//1 85//1 89//1 88//1 87//1
f 92//1 103//1 102//1 94//1 93//1
f 94//1 102//1 101//1 96//1 95//1
f 96//1 101//1 100//1 99//1 53//1
f 225//2 173//2 270//2 271//2
f 173//2 226//2 269//2 270//2
f 226//2 227//2 282//2 269//2
f 239//2 282//2 227//2 238//2
f 227//2 228//2 229//2 237//2 238//2
f 229//2 230//2 236//2 237//2
f 230//2 231//2 235//2 236//2
f 232//2 233//2 234//2 235//2 231//2
f 247//2 248//2 249//2 250//2 246//2
f 244//2 245//2 246//2 250//2 251//2
f 243//2 244//2 251//2 252//2
f 242//2 243//2 252//2 253//2
f 241//2 242//2 253//2 254//2 276//2
f 240//2 241//2 276//2 277//2 278//2
f 239//2 240//2 278//2 279//2 280//2 281//2 282//2
f 254//2 255//2 275//2 276//2
f 263//2 264//2 275//2 255//2 262//2
f 255//2 256//2 257//2 261//2 262//2
f 258//2 259//2 260//2 261//2 257//2
f 264//2 265//2 266//2 274//2 275//2
f 266//2 267//2 268//2 273//2 274//2
f 268//2 225//2 271//2 272//2 273//2
f 1//55 173//55 225//55 53//55
