[gd_scene load_steps=3 format=2]

[ext_resource path="res://minigames/arrow/Arrow.gd" type="Script" id=1]
[ext_resource path="res://minigames/arrow/gfx/arrow/windows_arrow.svg" type="Texture" id=2]

[node name="Arrow" type="Area2D"]
scale = Vector2( 0.55, 0.5 )
script = ExtResource( 1 )

[node name="Node2D" type="Node2D" parent="."]

[node name="Sprite" type="Sprite" parent="Node2D"]
position = Vector2( 5.71429, 0 )
rotation = 0.472984
scale = Vector2( 0.5, 0.5 )
texture = ExtResource( 2 )

[node name="Polygon2D" type="Polygon2D" parent="."]
visible = false
position = Vector2( 0, 10 )
polygon = PoolVector2Array( -40, 30, 40, 30, -51.4286, -106.667 )

[node name="CollisionPolygon2D" type="CollisionPolygon2D" parent="."]
position = Vector2( -2.85714, 10 )
polygon = PoolVector2Array( -65.7143, 13.3333, 51.4286, 46.6667, 0, -113.333 )

[node name="VisibilityNotifier2D" type="VisibilityNotifier2D" parent="."]

[connection signal="area_entered" from="." to="." method="_on_arrow_area_entered"]
[connection signal="body_entered" from="." to="." method="_on_arrow_body_entered"]
[connection signal="screen_exited" from="VisibilityNotifier2D" to="." method="_on_VisibilityNotifier2D_screen_exited"]
