[gd_scene load_steps=3 format=2]

[ext_resource path="res://minigames/arrow/gfx/folder_icon/folder_icon.png" type="Texture" id=1]

[sub_resource type="RectangleShape2D" id=1]
extents = Vector2( 60, 6.50569 )

[node name="Target" type="StaticBody2D"]
scale = Vector2( 1.5, 1.5 )
__meta__ = {
"_edit_group_": true
}

[node name="Sprite" type="Sprite" parent="."]
position = Vector2( 0, 10 )
scale = Vector2( 0.4, 0.4 )
texture = ExtResource( 1 )

[node name="CollisionShape2D" type="CollisionShape2D" parent="."]
scale = Vector2( 1.06148, -6.14846 )
shape = SubResource( 1 )
