# Blender MTL File: 'Button.blend'
# Material Count: 4

newmtl Material
Ns 96.078431
Ka 1.000000 1.000000 1.000000
Kd 0.640000 0.640000 0.640000
Ks 0.500000 0.500000 0.500000
Ke 0.000000 0.000000 0.000000
Ni 1.000000
d 1.000000
illum 2

newmtl Material.001
Ns 235.294118
Ka 1.000000 1.000000 1.000000
Kd 0.800000 0.000000 0.002171
Ks 1.000000 1.000000 1.000000
Ke 0.000000 0.000000 0.000000
Ni 1.000000
d 1.000000
illum 2

newmtl Material.002
Ns 96.078431
Ka 1.000000 1.000000 1.000000
Kd 0.050976 0.050976 0.050976
Ks 0.500000 0.500000 0.500000
Ke 0.000000 0.000000 0.000000
Ni 1.000000
d 1.000000
illum 2

newmtl Material.003
Ns 43.137255
Ka 1.000000 1.000000 1.000000
Kd 0.343380 0.343380 0.343380
Ks 0.996403 0.996403 0.996403
Ke 0.000000 0.000000 0.000000
Ni 1.000000
d 1.000000
illum 2
